<svg xmlns="http://www.w3.org/2000/svg" width="15" height="15.003" viewBox="0 0 15 15.003">
  <path id="Icon_awesome-search" data-name="Icon awesome-search" d="M14.8,12.971,11.875,10.05a.7.7,0,0,0-.5-.205H10.9A6.091,6.091,0,1,0,9.845,10.9v.478a.7.7,0,0,0,.205.5L12.971,14.8a.7.7,0,0,0,.993,0l.829-.829a.706.706,0,0,0,0-1Zm-8.7-3.126a3.75,3.75,0,1,1,3.75-3.75A3.748,3.748,0,0,1,6.094,9.845Z" fill="#151516"/>
</svg>
